%YAML 1.1
%TAG !u! tag:unity3d.com,2011:
--- !u!21 &2100000
Material:
  serializedVersion: 8
  m_ObjectHideFlags: 0
  m_CorrespondingSourceObject: {fileID: 0}
  m_PrefabInstance: {fileID: 0}
  m_PrefabAsset: {fileID: 0}
  m_Name: Ninja Go Camo MAT
  m_Shader: {fileID: 4800000, guid: d84268709d11078d11005b9844295342, type: 3}
  m_ValidKeywords: []
  m_InvalidKeywords: []
  m_LightmapFlags: 4
  m_EnableInstancingVariants: 0
  m_DoubleSidedGI: 0
  m_CustomRenderQueue: -1
  stringTagMap: {}
  disabledShaderPasses: []
  m_SavedProperties:
    serializedVersion: 3
    m_TexEnvs:
    - _MainTex:
        m_Texture: {fileID: 2800000, guid: 57a49d7c7512dcc46baaa8eb8fc3e4bf, type: 3}
        m_Scale: {x: 1, y: 1}
        m_Offset: {x: 0, y: 0}
    - _Ramp:
        m_Texture: {fileID: 2800000, guid: 4a056241e2722dc46a7262a8e7073fd9, type: 3}
        m_Scale: {x: 1, y: 1}
        m_Offset: {x: 0, y: 0}
    - _ToonShade:
        m_Texture: {fileID: 8900000, guid: e5cf5bfdcf251df4096e591b69cfade8, type: 3}
        m_Scale: {x: 1, y: 1}
        m_Offset: {x: 0, y: 0}
    m_Ints: []
    m_Floats:
    - _Outline: 0.009104477
    - _RimPower: 2.738806
    m_Colors:
    - _Color: {r: 0.5, g: 0.5, b: 0.5, a: 1}
    - _LColor: {r: 1, g: 1, b: 1, a: 1}
    - _OutlineColor: {r: 1, g: 1, b: 1, a: 0}
    - _RimColor: {r: 1, g: 0.9925373, b: 0.9925373, a: 1}
    - _SColor: {r: 0.51492536, g: 0.51492536, b: 0.51492536, a: 1}
  m_BuildTextureStacks: []
