%YAML 1.1
%TAG !u! tag:unity3d.com,2011:
--- !u!21 &2100000
Material:
  serializedVersion: 8
  m_ObjectHideFlags: 0
  m_CorrespondingSourceObject: {fileID: 0}
  m_PrefabInstance: {fileID: 0}
  m_PrefabAsset: {fileID: 0}
  m_Name: Pumki MAT MAT
  m_Shader: {fileID: 4800000, guid: d84268709d11078d11005b9844295342, type: 3}
  m_ValidKeywords: []
  m_InvalidKeywords: []
  m_LightmapFlags: 4
  m_EnableInstancingVariants: 0
  m_DoubleSidedGI: 0
  m_CustomRenderQueue: -1
  stringTagMap: {}
  disabledShaderPasses: []
  m_SavedProperties:
    serializedVersion: 3
    m_TexEnvs:
    - _MainTex:
        m_Texture: {fileID: 2800000, guid: 294fa2e06cc292a49abee22112496244, type: 3}
        m_Scale: {x: 1, y: 1}
        m_Offset: {x: 0, y: 0}
    - _ToonShade:
        m_Texture: {fileID: 8900000, guid: b3e17271b74579d4289ab40d38f613ba, type: 3}
        m_Scale: {x: 1, y: 1}
        m_Offset: {x: 0, y: 0}
    m_Ints: []
    m_Floats:
    - _Outline: 0.005
    - _RimPower: 0
    m_Colors:
    - _Color: {r: 0.47761196, g: 0.47526902, b: 0.31009135, a: 1}
    - _OutlineColor: {r: 0.13333334, g: 0.12941177, b: 0.11764706, a: 1}
    - _RimColor: {r: 0.26, g: 0.19, b: 0.16, a: 0}
  m_BuildTextureStacks: []
